{
  "name": "dlpages",
  "css_prefix_text": "pdlp-",
  "css_use_suffix": false,
  "hinting": true,
  "units_per_em": 1000,
  "ascent": 850,
  "glyphs": [
    {
      "uid": "40c9502d45c736a0a6ec45e6fbc28656",
      "css": "ok-outline",
      "code": 59392,
      "src": "typicons"
    },
    {
      "uid": "43fl9m553j1z5937vfjz0lgolrlspxwl",
      "css": "ok",
      "code": 59393,
      "src": "typicons"
    },
    {
      "uid": "24aba8757d4a7b49568c98a577a85df3",
      "css": "cancel-outline",
      "code": 59394,
      "src": "typicons"
    },
    {
      "uid": "1dq4tek4k8ea7zlj4kc3w83itnutaxg5",
      "css": "cancel",
      "code": 59395,
      "src": "typicons"
    },
    {
      "uid": "tau7t0t38662eqxrb80ozeiase5em2x9",
      "css": "thumbs-up",
      "code": 59396,
      "src": "typicons"
    },
    {
      "uid": "ani12ucvy2plqmykysnk4zd9i24cmxqp",
      "css": "thumbs-down",
      "code": 59397,
      "src": "typicons"
    }
  ]
}